…
AllStarsOneal = rbind(AllStarsPlayers, Oneal)

view(AllStarsOneal)
```

## Extract Shaquille O’Neal details from AllstarsOneal data frame

``` r
AllStarsOneal %>% 
  filter(player == "Shaquille O'Neal")
```

    ## # A tibble: 22 x 28
    ##    player     g    gs mins_total fg_total fga_total fg_percent x3p_total  x3pa
    ##    <chr>  <int> <int>      <int>    <int>     <int>      <dbl>     <int> <int>
    ##  1 Shaqu~    12     9        274       87       158      0.551         0     2
    ##  2 Shaqu~    81    81         37        9        16      0.562         0     0
    ##  3 Shaqu~    81    81         39       11        19      0.599         0     0
    ##  4 Shaqu~    79    79         37       11        20      0.583         0     0
    ##  5 Shaqu~    54    52         36       11        19      0.573         0     0
    ##  6 Shaqu~    51    51         38       10        19      0.557         0     0
    ##  7 Shaqu~    60    57         36       11        19      0.584         0     0
    ##  8 Shaqu~    49    49         34       10        18      0.576         0     0
    ##  9 Shaqu~    79    79         40       12        21      0.574         0     0
    ## 10 Shaqu~    74    74         39       11        19      0.572         0     0
    ## # ... with 12 more rows, and 19 more variables: x3p_percent <dbl>, x2p <int>,
    ## #   x2pa <int>, x2p_percent <dbl>, ft <int>, fta <int>, ft_percent <dbl>,
    ## #   orb <int>, drb <int>, trb_total <int>, ast_total <int>, stl <int>,
    ## #   blk <int>, tov <int>, pf <int>, fg_per_game <dbl>, fga_per_game <dbl>,
    ## #   x3p_per_game <dbl>, season <chr>
