…
    ## # A tibble: 0 x 3
    ## # ... with 3 variables: year <dbl>, month <dbl>, day <dbl>

# Data manipulation using dplyr and tidyr

``` r
# To select columns of a data frame, use select()
survey %>% 
  select(
    plot_id,species_id,weight
  )
```

    ## # A tibble: 34,786 x 3
    ##    plot_id species_id weight
    ##      <dbl> <chr>       <dbl>
    ##  1       2 NL             NA
    ##  2       2 NL             NA
    ##  3       2 NL             NA
    ##  4       2 NL             NA
    ##  5       2 NL             NA
    ##  6       2 NL             NA
    ##  7       2 NL             NA
    ##  8       2 NL             NA
    ##  9       2 NL            218
    ## 10       2 NL             NA
    ## # ... with 34,776 more rows

``` r
# To select all columns except certain ones, put a "-" in front of the variable to exclude it
survey %>% 
  select(
    -record_id,species_id
  )
```

    ## # A tibble: 34,786 x 12
    ##    month   day  year plot_id species_id sex   hindfoot_length weight genus
    ##    <dbl> <dbl> <dbl>   <dbl> <chr>      <fct>           <dbl>  <dbl> <fct>
    ##  1     7    16  1977       2 NL         M                  32     NA Neot~
    ##  2     8    19  1977       2 NL         M                  31     NA Neot~
    ##  3     9    13  1977       2 NL         unde~              NA     NA Neot~
    ##  4    10    16  1977       2 NL         unde~              NA     NA Neot~
    ##  5    11    12  1977       2 NL         unde~              NA     NA Neot~
    ##  6    11    12  1977       2 NL         unde~              NA     NA Neot~
    ##  7    12    10  1977       2 NL         unde~              NA     NA Neot~
    ##  8     1     8  1978       2 NL         unde~              NA     NA Neot~
    ##  9     2    18  1978       2 NL         M                  NA    218 Neot~
    ## 10     3    11  1978       2 NL         unde~              NA     NA Neot~
    ## # ... with 34,776 more rows, and 3 more variables: species <chr>, taxa <fct>,
    ## #   plot_type <chr>

## Use filter to sample the data

``` r
survey %>% 
  filter(
    year == 1977
  )
```

    ## # A tibble: 487 x 13
    ##    record_id month   day  year plot_id species_id sex   hindfoot_length weight
    ##        <dbl> <dbl> <dbl> <dbl>   <dbl> <chr>      <fct>           <dbl>  <dbl>
    ##  1         1     7    16  1977       2 NL         M                  32     NA
    ##  2        72     8    19  1977       2 NL         M                  31     NA
    ##  3       224     9    13  1977       2 NL         unde~              NA     NA
    ##  4       266    10    16  1977       2 NL         unde~              NA     NA
    ##  5       349    11    12  1977       2 NL         unde~              NA     NA
    ##  6       363    11    12  1977       2 NL         unde~              NA     NA
    ##  7       435    12    10  1977       2 NL         unde~              NA     NA
    ##  8         3     7    16  1977       2 DM         F                  37     NA
    ##  9       226     9    13  1977       2 DM         M                  37     51
    ## 10       233     9    13  1977       2 DM         M                  25     44
    ## # ... with 477 more rows, and 4 more variables: genus <fct>, species <chr>,
    ## #   taxa <fct>, plot_type <chr>
…
``` r
survey %>% 
  filter(
    year == 1995
  ) %>% 
  select(
    year,sex,weight
  )
```

    ## # A tibble: 1,180 x 3
    ##     year sex   weight
    ##    <dbl> <fct>  <dbl>
    ##  1  1995 M         NA
    ##  2  1995 F        165
    ##  3  1995 F        171
    ##  4  1995 F         NA
    ##  5  1995 M         41
    ##  6  1995 F         45
    ##  7  1995 M         46
    ##  8  1995 F         49
    ##  9  1995 M         46
    ## 10  1995 M         48
    ## # ... with 1,170 more rows

## Use mutate dplyr function

``` r
survey %>% 
  mutate(
    weight_kg = weight / 1000
  )
```

    ## # A tibble: 34,786 x 14
    ##    record_id month   day  year plot_id species_id sex   hindfoot_length weight
    ##        <dbl> <dbl> <dbl> <dbl>   <dbl> <chr>      <fct>           <dbl>  <dbl>
    ##  1         1     7    16  1977       2 NL         M                  32     NA
    ##  2        72     8    19  1977       2 NL         M                  31     NA
    ##  3       224     9    13  1977       2 NL         unde~              NA     NA
    ##  4       266    10    16  1977       2 NL         unde~              NA     NA
    ##  5       349    11    12  1977       2 NL         unde~              NA     NA
    ##  6       363    11    12  1977       2 NL         unde~              NA     NA
    ##  7       435    12    10  1977       2 NL         unde~              NA     NA
    ##  8       506     1     8  1978       2 NL         unde~              NA     NA
    ##  9       588     2    18  1978       2 NL         M                  NA    218
    ## 10       661     3    11  1978       2 NL         unde~              NA     NA
    ## # ... with 34,776 more rows, and 5 more variables: genus <fct>, species <chr>,
    ## #   taxa <fct>, plot_type <chr>, weight_kg <dbl>

``` r
#You can also create a second new column based on the first new column within the same call of mutate()
survey %>% 
  mutate(
    weight_kg = weight /1000,
    weight_lb = weight_kg * 2.2
  )
```

    ## # A tibble: 34,786 x 15
    ##    record_id month   day  year plot_id species_id sex   hindfoot_length weight
    ##        <dbl> <dbl> <dbl> <dbl>   <dbl> <chr>      <fct>           <dbl>  <dbl>
    ##  1         1     7    16  1977       2 NL         M                  32     NA
    ##  2        72     8    19  1977       2 NL         M                  31     NA
    ##  3       224     9    13  1977       2 NL         unde~              NA     NA
    ##  4       266    10    16  1977       2 NL         unde~              NA     NA
    ##  5       349    11    12  1977       2 NL         unde~              NA     NA
    ##  6       363    11    12  1977       2 NL         unde~              NA     NA
    ##  7       435    12    10  1977       2 NL         unde~              NA     NA
    ##  8       506     1     8  1978       2 NL         unde~              NA     NA
    ##  9       588     2    18  1978       2 NL         M                  NA    218
    ## 10       661     3    11  1978       2 NL         unde~              NA     NA
    ## # ... with 34,776 more rows, and 6 more variables: genus <fct>, species <chr>,
    ## #   taxa <fct>, plot_type <chr>, weight_kg <dbl>, weight_lb <dbl>

``` r
# The first few rows of the output are full of NAs, so if we wanted to remove those we could insert a filter() in the chain:
survey %>% 
  filter(!is.na(weight)) %>% 
  mutate(
    weight_kg = weight /1000,
    weight_lb = weight_kg * 2.2
  )
```

    ## # A tibble: 32,283 x 15
    ##    record_id month   day  year plot_id species_id sex   hindfoot_length weight
    ##        <dbl> <dbl> <dbl> <dbl>   <dbl> <chr>      <fct>           <dbl>  <dbl>
    ##  1       588     2    18  1978       2 NL         M                  NA    218
    ##  2       845     5     6  1978       2 NL         M                  32    204
    ##  3       990     6     9  1978       2 NL         M                  NA    200
    ##  4      1164     8     5  1978       2 NL         M                  34    199
    ##  5      1261     9     4  1978       2 NL         M                  32    197
    ##  6      1453    11     5  1978       2 NL         M                  NA    218
    ##  7      1756     4    29  1979       2 NL         M                  33    166
    ##  8      1818     5    30  1979       2 NL         M                  32    184
    ##  9      1882     7     4  1979       2 NL         M                  32    206
    ## 10      2133    10    25  1979       2 NL         F                  33    274
    ## # ... with 32,273 more rows, and 6 more variables: genus <fct>, species <chr>,
    ## #   taxa <fct>, plot_type <chr>, weight_kg <dbl>, weight_lb <dbl>
## Practice subsetting baset on multiple criteria

``` r
survey_hindfoot = survey %>% 
  mutate(
    hindfoot_cm = hindfoot_length/10
  ) %>% 
  select(species_id, hindfoot_cm) %>% 
  filter(!is.na(hindfoot_cm) & hindfoot_cm < 3) %>% 
  arrange(desc(hindfoot_cm))

survey_hindfoot
```

    ## # A tibble: 15,371 x 2
    ##    species_id hindfoot_cm
    ##    <chr>            <dbl>
    ##  1 NL                 2.9
    ##  2 NL                 2.9
    ##  3 PB                 2.9
    ##  4 NL                 2.9
    ##  5 NL                 2.9
    ##  6 NL                 2.9
    ##  7 NL                 2.9
    ##  8 SH                 2.9
    ##  9 SH                 2.9
    ## 10 SH                 2.9
    ## # ... with 15,361 more rows
…
### Group by multiple columns:

``` r
survey %>% 
  group_by(sex,species_id) %>% 
  summarise(mean_weight = mean(weight, na.rm = T)) %>% 
  arrange(desc(mean_weight))
```

    ## `summarise()` regrouping output by 'sex' (override with `.groups` argument)

    ## # A tibble: 92 x 3
    ## # Groups:   sex [3]
    ##    sex          species_id mean_weight
    ##    <fct>        <chr>            <dbl>
    ##  1 undetermined NL               168. 
    ##  2 M            NL               166. 
    ##  3 F            NL               154. 
    ##  4 M            SS               130  
    ##  5 undetermined SH               130  
    ##  6 M            DS               122. 
    ##  7 undetermined DS               120  
    ##  8 F            DS               118. 
    ##  9 F            SH                78.8
    ## 10 F            SF                69  
    ## # ... with 82 more rows

### Eliminate na.rm from our script

``` r
survey %>% 
  filter(!is.na(weight)) %>% 
  group_by(sex, species_id) %>% 
  summarise(mean_weight = mean(weight),
            min_weight = min(weight)) %>% 
  arrange(desc(min_weight))
```

    ## `summarise()` regrouping output by 'sex' (override with `.groups` argument)

    ## # A tibble: 64 x 4
    ## # Groups:   sex [3]
    ##    sex          species_id mean_weight min_weight
    ##    <fct>        <chr>            <dbl>      <dbl>
    ##  1 M            SS               130          130
    ##  2 undetermined SH               130          130
    ##  3 undetermined NL               168.          83
    ##  4 undetermined DS               120           78
    ##  5 F            SS                57           57
    ##  6 F            SF                69           46
    ##  7 F            DS               118.          45
    ##  8 undetermined DO                50.7         44
    ##  9 undetermined SF                40.5         36
    ## 10 M            SO                55.7         35
    ## # ... with 54 more rows
…
    ## `summarise()` ungrouping output (override with `.groups` argument)

``` r
hindfoot
```

    ## # A tibble: 25 x 4
    ##    species_id mean_hindfoot min_hindfoot max_hindfoot
    ##    <chr>              <dbl>        <dbl>        <dbl>
    ##  1 AH                  33             31           35
    ##  2 BA                  13              6           16
    ##  3 DM                  36.0           16           50
    ##  4 DO                  35.6           26           64
    ##  5 DS                  49.9           39           58
    ##  6 NL                  32.3           21           70
    ##  7 OL                  20.5           12           39
    ##  8 OT                  20.3           13           50
    ##  9 OX                  19.1           13           21
    ## 10 PB                  26.1            2           47
    ## # ... with 15 more rows

### What was the heaviest animal measured in each year?

``` r
survey %>% 
  filter(!is.na(weight)) %>% 
  group_by(year) %>% 
  filter(weight == max(weight)) %>% 
  select(year, genus, species_id,weight) %>% 
  arrange(desc(weight))
```

    ## # A tibble: 27 x 4
    ## # Groups:   year [26]
    ##     year genus   species_id weight
    ##    <dbl> <fct>   <chr>       <dbl>
    ##  1  2001 Neotoma NL            280
    ##  2  1987 Neotoma NL            278
    ##  3  1989 Neotoma NL            275
    ##  4  1979 Neotoma NL            274
    ##  5  2000 Neotoma NL            265
    ##  6  1981 Neotoma NL            264
    ##  7  1984 Neotoma NL            259
    ##  8  1983 Neotoma NL            256
    ##  9  1982 Neotoma NL            252
    ## 10  1988 Neotoma NL            248
    ## # ... with 17 more rows
…
## Using pivot\_longer() to reshape the data frame to it’s original

``` r
# do not forget to select the columns that needs to be pivoted
survey_longer = survey_wider %>% 
  pivot_longer(2:11,names_to = "genus", values_to = "mean_weight")

survey_longer
```

    ## # A tibble: 240 x 3
    ## # Groups:   plot_id [24]
    ##    plot_id genus           mean_weight
    ##      <dbl> <chr>                 <dbl>
    ##  1       1 Baiomys                7   
    ##  2       1 Chaetodipus           22.2 
    ##  3       1 Dipodomys             60.2 
    ##  4       1 Neotoma              156.  
    ##  5       1 Onychomys             27.7 
    ##  6       1 Perognathus            9.62
    ##  7       1 Peromyscus            22.2 
    ##  8       1 Reithrodontomys       11.4 
    ##  9       1 Sigmodon              NA   
    ## 10       1 Spermophilus          NA   
    ## # ... with 230 more rows
…
``` r
survey_spread_genera = survey %>% 
  group_by(plot_id, year) %>% 
  summarise(n_genera = n_distinct(genus)) %>% 
  pivot_wider(names_from = plot_id, values_from = n_genera)
```

    ## `summarise()` regrouping output by 'plot_id' (override with `.groups` argument)

``` r
survey_spread_genera
```

    ## # A tibble: 26 x 25
    ##     year   `1`   `2`   `3`   `4`   `5`   `6`   `7`   `8`   `9`  `10`  `11`  `12`
    ##    <dbl> <int> <int> <int> <int> <int> <int> <int> <int> <int> <int> <int> <int>
    ##  1  1977     2     6     5     4     4     3     3     2     3     1     5     5
    ##  2  1978     3     6     6     4     3     4     1     4     3    NA     6     4
    ##  3  1979     4     6     4     3     2     3     3     3     3     2     5     4
    ##  4  1980     7     8     6     4     5     4     1     5     4     5     6     5
    ##  5  1981     5     5     6     5     4     5     1     6     5     5     8     7
    ##  6  1982     6     9     8     4     6     9     4     6     6     8     8    10
    ##  7  1983     7     9    10     6     7     9     2     4     7     4     9     9
    ##  8  1984     6     9    11     3     7     7     3     6     4     2     7     9
    ##  9  1985     4     6     7     4     3     5     4     4     5     3     5     8
    ## 10  1986     3     4     6     3     1     6     3     3     3     1     6     7
    ## # ... with 16 more rows, and 12 more variables: `13` <int>, `14` <int>,
    ## #   `15` <int>, `16` <int>, `17` <int>, `18` <int>, `19` <int>, `20` <int>,
    ## #   `21` <int>, `22` <int>, `23` <int>, `24` <int>
…
``` r
survey_longer = survey_spread_genera %>% 
  pivot_longer(2:25, names_to = "plot_id", values_to = "n_genera")
  
survey_long = survey %>% 
  pivot_longer(c("hindfoot_length","weight"), names_to = "measurement", values_to = "value")
# other variant
survey_long = survey %>% 
  gather("measurement","value", hindfoot_length, weight)

survey_long
```

    ## # A tibble: 69,572 x 13
    ##    record_id month   day  year plot_id species_id sex   genus species taxa 
    ##        <dbl> <dbl> <dbl> <dbl>   <dbl> <chr>      <fct> <fct> <chr>   <fct>
    ##  1         1     7    16  1977       2 NL         M     Neot~ albigu~ Rode~
    ##  2        72     8    19  1977       2 NL         M     Neot~ albigu~ Rode~
    ##  3       224     9    13  1977       2 NL         unde~ Neot~ albigu~ Rode~
    ##  4       266    10    16  1977       2 NL         unde~ Neot~ albigu~ Rode~
    ##  5       349    11    12  1977       2 NL         unde~ Neot~ albigu~ Rode~
    ##  6       363    11    12  1977       2 NL         unde~ Neot~ albigu~ Rode~
    ##  7       435    12    10  1977       2 NL         unde~ Neot~ albigu~ Rode~
    ##  8       506     1     8  1978       2 NL         unde~ Neot~ albigu~ Rode~
    ##  9       588     2    18  1978       2 NL         M     Neot~ albigu~ Rode~
    ## 10       661     3    11  1978       2 NL         unde~ Neot~ albigu~ Rode~
    ## # ... with 69,562 more rows, and 3 more variables: plot_type <chr>,
    ## #   measurement <chr>, value <dbl>
…
## Remove observations for rare species (species\_id &gt; 50)

``` r
species_count = survey_complete %>% 
  count(species_id) %>% 
  filter(n >=50)

survey_complete = survey_complete %>% 
  filter(species_id %in% species_count$species_id)

survey_complete
```

    ## # A tibble: 30,521 x 13
    ##    record_id month   day  year plot_id species_id sex   hindfoot_length weight
    ##        <dbl> <dbl> <dbl> <dbl>   <dbl> <chr>      <fct>           <dbl>  <dbl>
    ##  1       845     5     6  1978       2 NL         M                  32    204
    ##  2      1164     8     5  1978       2 NL         M                  34    199
    ##  3      1261     9     4  1978       2 NL         M                  32    197
    ##  4      1756     4    29  1979       2 NL         M                  33    166
    ##  5      1818     5    30  1979       2 NL         M                  32    184
    ##  6      1882     7     4  1979       2 NL         M                  32    206
    ##  7      2133    10    25  1979       2 NL         F                  33    274
    ##  8      2184    11    17  1979       2 NL         F                  30    186
    ##  9      2406     1    16  1980       2 NL         F                  33    184
    ## 10      3000     5    18  1980       2 NL         F                  31     87
    ## # ... with 30,511 more rows, and 4 more variables: genus <fct>, species <chr>,
    ## #   taxa <fct>, plot_type <chr>
…
