…
## Computing the mean, trimmed mean, and median for the population using R:

``` r
state %>% 
  group_by(state) %>% 
  summarise(mean.pop = mean(population)) %>% 
  arrange(desc(mean.pop))
```

    ## # A tibble: 50 x 2
    ##    state          mean.pop
    ##    <chr>             <dbl>
    ##  1 California     37253956
    ##  2 Texas          25145561
    ##  3 New York       19378102
    ##  4 Florida        18801310
    ##  5 Illinois       12830632
    ##  6 Pennsylvania   12702379
    ##  7 Ohio           11536504
    ##  8 Michigan        9883640
    ##  9 Georgia         9687653
    ## 10 North Carolina  9535483
    ## # ... with 40 more rows

## Trimmed Mean Calculation

``` r
# The average of all values after dropping a fixed number of extreme values.
# in ou case we drop 10% of the extreme cases
state %>% 
  group_by(state) %>% 
  summarise(mean.trim = mean(population, trim = 0.1)) %>% 
  arrange(desc(mean.trim))
```

    ## # A tibble: 50 x 2
    ##    state          mean.trim
    ##    <chr>              <dbl>
    ##  1 California      37253956
    ##  2 Texas           25145561
    ##  3 New York        19378102
    ##  4 Florida         18801310
    ##  5 Illinois        12830632
    ##  6 Pennsylvania    12702379
    ##  7 Ohio            11536504
    ##  8 Michigan         9883640
    ##  9 Georgia          9687653
    ## 10 North Carolina   9535483
    ## # ... with 40 more rows

## Trimmed Mean Calculation for Murder.Rate

``` r
state %>% 
  group_by(state) %>% 
  summarise(mean.trim.murder = mean(murder_rate, trim = 0.1)) %>% 
  arrange(desc(mean.trim.murder))
```

    ## # A tibble: 50 x 2
    ##    state          mean.trim.murder
    ##    <chr>                     <dbl>
    ##  1 Louisiana                  10.3
    ##  2 Mississippi                 8.6
    ##  3 Missouri                    6.6
    ##  4 South Carolina              6.4
    ##  5 Maryland                    6.1
    ##  6 Nevada                      6  
    ##  7 Delaware                    5.8
    ##  8 Florida                     5.8
    ##  9 Alabama                     5.7
    ## 10 Georgia                     5.7
    ## # ... with 40 more rows

## Comparison between mean and trim mean of population

``` r
state %>% 
  group_by(state) %>% 
  summarise(mean.pop = mean(population),
            mean.trim.pop = mean(population, trim = 0.2)) %>% 
  arrange(desc(mean.pop))
```

    ## # A tibble: 50 x 3
    ##    state          mean.pop mean.trim.pop
    ##    <chr>             <dbl>         <dbl>
    ##  1 California     37253956      37253956
    ##  2 Texas          25145561      25145561
    ##  3 New York       19378102      19378102
    ##  4 Florida        18801310      18801310
    ##  5 Illinois       12830632      12830632
    ##  6 Pennsylvania   12702379      12702379
    ##  7 Ohio           11536504      11536504
    ##  8 Michigan        9883640       9883640
    ##  9 Georgia         9687653       9687653
    ## 10 North Carolina  9535483       9535483
    ## # ... with 40 more rows

Claculate the median of the Population Feature

``` r
# The value such that one-half of the data lies above and below.
state %>% 
  group_by(state) %>% 
  summarise(median.pop = median(population)) %>% 
  arrange(desc(median.pop))
```

    ## # A tibble: 50 x 2
    ##    state          median.pop
    ##    <chr>               <dbl>
    ##  1 California       37253956
    ##  2 Texas            25145561
    ##  3 New York         19378102
    ##  4 Florida          18801310
    ##  5 Illinois         12830632
    ##  6 Pennsylvania     12702379
    ##  7 Ohio             11536504
    ##  8 Michigan          9883640
    ##  9 Georgia           9687653
    ## 10 North Carolina    9535483
    ## # ... with 40 more rows
…
``` r
state %>% 
  group_by(state) %>% 
  summarise(median.murder = median(murder_rate),
            median.pop = median(population)) %>% 
  arrange(desc(median.murder))
```

    ## # A tibble: 50 x 3
    ##    state          median.murder median.pop
    ##    <chr>                  <dbl>      <dbl>
    ##  1 Louisiana               10.3    4533372
    ##  2 Mississippi              8.6    2967297
    ##  3 Missouri                 6.6    5988927
    ##  4 South Carolina           6.4    4625364
    ##  5 Maryland                 6.1    5773552
    ##  6 Nevada                   6      2700551
    ##  7 Delaware                 5.8     897934
    ##  8 Florida                  5.8   18801310
    ##  9 Alabama                  5.7    4779736
    ## 10 Georgia                  5.7    9687653
    ## # ... with 40 more rows
…
    ## [1] 4.445834

## This evaluates the weighted mean of murder rate per individual state

``` r
# In order to compute the average murder rate for the country, we need to use a weighted mean or median to account for different populations in the states.
state %>% 
  group_by(state) %>% 
  summarise(meanpop = weighted.mean(murder_rate, population)) %>% 
  arrange(desc(meanpop))
```

    ## # A tibble: 50 x 2
    ##    state          meanpop
    ##    <chr>            <dbl>
    ##  1 Louisiana         10.3
    ##  2 Mississippi        8.6
    ##  3 Missouri           6.6
    ##  4 South Carolina     6.4
    ##  5 Maryland           6.1
    ##  6 Nevada             6  
    ##  7 Delaware           5.8
    ##  8 Florida            5.8
    ##  9 Alabama            5.7
    ## 10 Georgia            5.7
    ## # ... with 40 more rows
…
    ## # A tibble: 1 x 1
    ##   meanpop
    ##     <dbl>
    ## 1    4.45

## Evaluates the weighted median of murder rate by state

``` r
state %>% 
  group_by(state) %>% 
  summarise(medianmurder = weightedMedian(murder_rate, population)) %>% 
  arrange(desc(medianmurder))
```

    ## # A tibble: 50 x 2
    ##    state          medianmurder
    ##    <chr>                 <dbl>
    ##  1 Louisiana              10.3
    ##  2 Mississippi             8.6
    ##  3 Missouri                6.6
    ##  4 South Carolina          6.4
    ##  5 Maryland                6.1
    ##  6 Nevada                  6  
    ##  7 Delaware                5.8
    ##  8 Florida                 5.8
    ##  9 Alabama                 5.7
    ## 10 Georgia                 5.7
    ## # ... with 40 more rows
…
